Time : 20:55:14
SQLSTATE[HY000] [1045] Access denied for user 'root'@'localhost' (using password: NO)

Time : 20:55:12
SQLSTATE[HY000] [1045] Access denied for user 'root'@'localhost' (using password: NO)

Time : 20:55:06
SQLSTATE[HY000] [1045] Access denied for user 'root'@'localhost' (using password: NO)

Time : 20:55:04
SQLSTATE[HY000] [1045] Access denied for user 'root'@'localhost' (using password: NO)

Time : 20:55:04
SQLSTATE[HY000] [1045] Access denied for user 'root'@'localhost' (using password: NO)

Time : 20:07:00
SQLSTATE[HY000] [1045] Access denied for user 'root'@'localhost' (using password: NO)

Time : 20:06:49
SQLSTATE[HY000] [1045] Access denied for user 'root'@'localhost' (using password: NO)

Time : 20:06:38
SQLSTATE[HY000] [1045] Access denied for user 'root'@'localhost' (using password: NO)

Time : 20:06:27
SQLSTATE[HY000] [1045] Access denied for user 'root'@'localhost' (using password: NO)

Time : 20:06:17
SQLSTATE[HY000] [1045] Access denied for user 'root'@'localhost' (using password: NO)

Time : 20:06:06
SQLSTATE[HY000] [1045] Access denied for user 'root'@'localhost' (using password: NO)

Time : 20:05:55
SQLSTATE[HY000] [1045] Access denied for user 'root'@'localhost' (using password: NO)

Time : 20:05:44
SQLSTATE[HY000] [1045] Access denied for user 'root'@'localhost' (using password: NO)

Time : 20:05:34
SQLSTATE[HY000] [1045] Access denied for user 'root'@'localhost' (using password: NO)

Time : 20:05:23
SQLSTATE[HY000] [1045] Access denied for user 'root'@'localhost' (using password: NO)

Time : 20:05:12
SQLSTATE[HY000] [1045] Access denied for user 'root'@'localhost' (using password: NO)

Time : 20:05:01
SQLSTATE[HY000] [1045] Access denied for user 'root'@'localhost' (using password: NO)

Time : 20:04:51
SQLSTATE[HY000] [1045] Access denied for user 'root'@'localhost' (using password: NO)

Time : 20:04:40
SQLSTATE[HY000] [1045] Access denied for user 'root'@'localhost' (using password: NO)

Time : 20:04:29
SQLSTATE[HY000] [1045] Access denied for user 'root'@'localhost' (using password: NO)

Time : 20:04:18
SQLSTATE[HY000] [1045] Access denied for user 'root'@'localhost' (using password: NO)

Time : 20:04:08
SQLSTATE[HY000] [1045] Access denied for user 'root'@'localhost' (using password: NO)

Time : 20:03:57
SQLSTATE[HY000] [1045] Access denied for user 'root'@'localhost' (using password: NO)

Time : 20:03:47
SQLSTATE[HY000] [1045] Access denied for user 'root'@'localhost' (using password: NO)

Time : 20:03:36
SQLSTATE[HY000] [1045] Access denied for user 'root'@'localhost' (using password: NO)

Time : 20:03:25
SQLSTATE[HY000] [1045] Access denied for user 'root'@'localhost' (using password: NO)

Time : 20:03:14
SQLSTATE[HY000] [1045] Access denied for user 'root'@'localhost' (using password: NO)

Time : 20:03:04
SQLSTATE[HY000] [1045] Access denied for user 'root'@'localhost' (using password: NO)

Time : 20:02:53
SQLSTATE[HY000] [1045] Access denied for user 'root'@'localhost' (using password: NO)

Time : 20:02:42
SQLSTATE[HY000] [1045] Access denied for user 'root'@'localhost' (using password: NO)

Time : 20:02:31
SQLSTATE[HY000] [1045] Access denied for user 'root'@'localhost' (using password: NO)

Time : 20:02:20
SQLSTATE[HY000] [1045] Access denied for user 'root'@'localhost' (using password: NO)

Time : 20:02:09
SQLSTATE[HY000] [1045] Access denied for user 'root'@'localhost' (using password: NO)

Time : 20:01:58
SQLSTATE[HY000] [1045] Access denied for user 'root'@'localhost' (using password: NO)

Time : 20:01:47
SQLSTATE[HY000] [1045] Access denied for user 'root'@'localhost' (using password: NO)

Time : 20:01:37
SQLSTATE[HY000] [1045] Access denied for user 'root'@'localhost' (using password: NO)

Time : 20:01:26
SQLSTATE[HY000] [1045] Access denied for user 'root'@'localhost' (using password: NO)

Time : 20:01:15
SQLSTATE[HY000] [1045] Access denied for user 'root'@'localhost' (using password: NO)

Time : 20:01:04
SQLSTATE[HY000] [1045] Access denied for user 'root'@'localhost' (using password: NO)

Time : 20:00:53
SQLSTATE[HY000] [1045] Access denied for user 'root'@'localhost' (using password: NO)

Time : 20:00:42
SQLSTATE[HY000] [1045] Access denied for user 'root'@'localhost' (using password: NO)

Time : 20:00:31
SQLSTATE[HY000] [1045] Access denied for user 'root'@'localhost' (using password: NO)

Time : 20:00:20
SQLSTATE[HY000] [1045] Access denied for user 'root'@'localhost' (using password: NO)

Time : 20:00:10
SQLSTATE[HY000] [1045] Access denied for user 'root'@'localhost' (using password: NO)

Time : 19:59:59
SQLSTATE[HY000] [1045] Access denied for user 'root'@'localhost' (using password: NO)

Time : 19:59:48
SQLSTATE[HY000] [1045] Access denied for user 'root'@'localhost' (using password: NO)

Time : 19:59:37
SQLSTATE[HY000] [1045] Access denied for user 'root'@'localhost' (using password: NO)

Time : 19:59:26
SQLSTATE[HY000] [1045] Access denied for user 'root'@'localhost' (using password: NO)

Time : 19:59:15
SQLSTATE[HY000] [1045] Access denied for user 'root'@'localhost' (using password: NO)

Time : 19:59:04
SQLSTATE[HY000] [1045] Access denied for user 'root'@'localhost' (using password: NO)

Time : 19:58:53
SQLSTATE[HY000] [1045] Access denied for user 'root'@'localhost' (using password: NO)

Time : 19:58:42
SQLSTATE[HY000] [1045] Access denied for user 'root'@'localhost' (using password: NO)

Time : 19:58:32
SQLSTATE[HY000] [1045] Access denied for user 'root'@'localhost' (using password: NO)

Time : 19:58:21
SQLSTATE[HY000] [1045] Access denied for user 'root'@'localhost' (using password: NO)

Time : 19:58:10
SQLSTATE[HY000] [1045] Access denied for user 'root'@'localhost' (using password: NO)

Time : 19:57:59
SQLSTATE[HY000] [1045] Access denied for user 'root'@'localhost' (using password: NO)

Time : 19:57:48
SQLSTATE[HY000] [1045] Access denied for user 'root'@'localhost' (using password: NO)

Time : 19:57:37
SQLSTATE[HY000] [1045] Access denied for user 'root'@'localhost' (using password: NO)

Time : 19:57:27
SQLSTATE[HY000] [1045] Access denied for user 'root'@'localhost' (using password: NO)

Time : 19:57:16
SQLSTATE[HY000] [1045] Access denied for user 'root'@'localhost' (using password: NO)

Time : 19:57:16
SQLSTATE[HY000] [1045] Access denied for user 'root'@'localhost' (using password: NO)

Time : 19:57:06
SQLSTATE[HY000] [1045] Access denied for user 'root'@'localhost' (using password: NO)

Time : 19:56:55
SQLSTATE[HY000] [1045] Access denied for user 'root'@'localhost' (using password: NO)

Time : 19:56:44
SQLSTATE[HY000] [1045] Access denied for user 'root'@'localhost' (using password: NO)

Time : 19:56:33
SQLSTATE[HY000] [1045] Access denied for user 'root'@'localhost' (using password: NO)

Time : 19:56:23
SQLSTATE[HY000] [1045] Access denied for user 'root'@'localhost' (using password: NO)

Time : 19:56:12
SQLSTATE[HY000] [1045] Access denied for user 'root'@'localhost' (using password: NO)

Time : 19:56:02
SQLSTATE[HY000] [1045] Access denied for user 'root'@'localhost' (using password: NO)

Time : 19:55:51
SQLSTATE[HY000] [1045] Access denied for user 'root'@'localhost' (using password: NO)

Time : 19:55:41
SQLSTATE[HY000] [1045] Access denied for user 'root'@'localhost' (using password: NO)

Time : 19:55:30
SQLSTATE[HY000] [1045] Access denied for user 'root'@'localhost' (using password: NO)

Time : 19:55:19
SQLSTATE[HY000] [1045] Access denied for user 'root'@'localhost' (using password: NO)

Time : 19:55:08
SQLSTATE[HY000] [1045] Access denied for user 'root'@'localhost' (using password: NO)

Time : 19:54:57
SQLSTATE[HY000] [1045] Access denied for user 'root'@'localhost' (using password: NO)

Time : 19:54:46
SQLSTATE[HY000] [1045] Access denied for user 'root'@'localhost' (using password: NO)

Time : 19:54:35
SQLSTATE[HY000] [1045] Access denied for user 'root'@'localhost' (using password: NO)

Time : 19:54:25
SQLSTATE[HY000] [1045] Access denied for user 'root'@'localhost' (using password: NO)

Time : 19:54:14
SQLSTATE[HY000] [1045] Access denied for user 'root'@'localhost' (using password: NO)

Time : 19:54:03
SQLSTATE[HY000] [1045] Access denied for user 'root'@'localhost' (using password: NO)

Time : 19:53:52
SQLSTATE[HY000] [1045] Access denied for user 'root'@'localhost' (using password: NO)

Time : 19:53:41
SQLSTATE[HY000] [1045] Access denied for user 'root'@'localhost' (using password: NO)

Time : 19:53:30
SQLSTATE[HY000] [1045] Access denied for user 'root'@'localhost' (using password: NO)

Time : 19:53:19
SQLSTATE[HY000] [1045] Access denied for user 'root'@'localhost' (using password: NO)

Time : 19:53:08
SQLSTATE[HY000] [1045] Access denied for user 'root'@'localhost' (using password: NO)

Time : 19:52:57
SQLSTATE[HY000] [1045] Access denied for user 'root'@'localhost' (using password: NO)

Time : 19:52:46
SQLSTATE[HY000] [1045] Access denied for user 'root'@'localhost' (using password: NO)

Time : 19:52:35
SQLSTATE[HY000] [1045] Access denied for user 'root'@'localhost' (using password: NO)

Time : 19:52:24
SQLSTATE[HY000] [1045] Access denied for user 'root'@'localhost' (using password: NO)

Time : 19:52:13
SQLSTATE[HY000] [1045] Access denied for user 'root'@'localhost' (using password: NO)

Time : 19:52:02
SQLSTATE[HY000] [1045] Access denied for user 'root'@'localhost' (using password: NO)

Time : 19:51:51
SQLSTATE[HY000] [1045] Access denied for user 'root'@'localhost' (using password: NO)

Time : 19:51:40
SQLSTATE[HY000] [1045] Access denied for user 'root'@'localhost' (using password: NO)

Time : 19:51:29
SQLSTATE[HY000] [1045] Access denied for user 'root'@'localhost' (using password: NO)

Time : 19:51:18
SQLSTATE[HY000] [1045] Access denied for user 'root'@'localhost' (using password: NO)

Time : 19:51:07
SQLSTATE[HY000] [1045] Access denied for user 'root'@'localhost' (using password: NO)

Time : 19:50:56
SQLSTATE[HY000] [1045] Access denied for user 'root'@'localhost' (using password: NO)

Time : 19:50:45
SQLSTATE[HY000] [1045] Access denied for user 'root'@'localhost' (using password: NO)

Time : 19:50:34
SQLSTATE[HY000] [1045] Access denied for user 'root'@'localhost' (using password: NO)

Time : 19:50:23
SQLSTATE[HY000] [1045] Access denied for user 'root'@'localhost' (using password: NO)

Time : 19:50:12
SQLSTATE[HY000] [1045] Access denied for user 'root'@'localhost' (using password: NO)

Time : 19:50:01
SQLSTATE[HY000] [1045] Access denied for user 'root'@'localhost' (using password: NO)

Time : 19:49:50
SQLSTATE[HY000] [1045] Access denied for user 'root'@'localhost' (using password: NO)

Time : 19:49:39
SQLSTATE[HY000] [1045] Access denied for user 'root'@'localhost' (using password: NO)

Time : 19:49:29
SQLSTATE[HY000] [1045] Access denied for user 'root'@'localhost' (using password: NO)

Time : 19:49:18
SQLSTATE[HY000] [1045] Access denied for user 'root'@'localhost' (using password: NO)

Time : 19:49:07
SQLSTATE[HY000] [1045] Access denied for user 'root'@'localhost' (using password: NO)

Time : 19:48:57
SQLSTATE[HY000] [1045] Access denied for user 'root'@'localhost' (using password: NO)

Time : 19:48:46
SQLSTATE[HY000] [1045] Access denied for user 'root'@'localhost' (using password: NO)

Time : 19:48:36
SQLSTATE[HY000] [1045] Access denied for user 'root'@'localhost' (using password: NO)

Time : 19:48:25
SQLSTATE[HY000] [1045] Access denied for user 'root'@'localhost' (using password: NO)

Time : 19:48:14
SQLSTATE[HY000] [1045] Access denied for user 'root'@'localhost' (using password: NO)

Time : 19:48:03
SQLSTATE[HY000] [1045] Access denied for user 'root'@'localhost' (using password: NO)

Time : 19:47:52
SQLSTATE[HY000] [1045] Access denied for user 'root'@'localhost' (using password: NO)

Time : 19:47:41
SQLSTATE[HY000] [1045] Access denied for user 'root'@'localhost' (using password: NO)

Time : 19:47:30
SQLSTATE[HY000] [1045] Access denied for user 'root'@'localhost' (using password: NO)

Time : 19:47:30
SQLSTATE[HY000] [1045] Access denied for user 'root'@'localhost' (using password: NO)

